/home/zakharov/NetBeansProjects/soap-j2ee-web/src/main/java/com/zakharov/soap/j2ee/web/PostgreSQLDAO.java
/home/zakharov/NetBeansProjects/soap-j2ee-web/src/main/java/com/zakharov/soap/j2ee/web/PersonWebService.java
/home/zakharov/NetBeansProjects/soap-j2ee-web/src/main/java/com/zakharov/soap/j2ee/web/Person.java
